…
  prop.test(p2_data_each_city$n_homicide_unsolved, p2_data_each_city$n_homicide_total) %>% 
  broom::tidy() %>% 
  select(estimate, conf.low, conf.high)
  
}

p2_data_mutated_unsolved_prop = 
  p2_data_mutate %>% 
  mutate(unsolved_prop = map(.x = city_state, ~ prop_test_unsolved(.x))) %>% 
  unnest()
p2_data_mutated_unsolved_prop
```

    ## # A tibble: 50 x 6
    ##    city_state n_homicide_total n_homicide_uns~ estimate conf.low conf.high
    ##    <chr>                 <int>           <int>    <dbl>    <dbl>     <dbl>
    ##  1 Albuquerq~              378              75    0.198    0.160     0.243
    ##  2 Atlanta, ~              973             172    0.177    0.154     0.203
    ##  3 Baltimore~             2827             919    0.325    0.308     0.343
    ##  4 Baton Rou~              424             102    0.241    0.201     0.285
    ##  5 Birmingha~              800             192    0.24     0.211     0.271
    ##  6 Boston, MA              614             154    0.251    0.217     0.287
    ##  7 Buffalo, ~              521             157    0.301    0.263     0.343
    ##  8 Charlotte~              687             105    0.153    0.127     0.182
    ##  9 Chicago, ~             5535            2046    0.370    0.357     0.383
    ## 10 Cincinnat~              694             158    0.228    0.197     0.261
    ## # ... with 40 more rows
…
